{
    "tracks": {
        "href": "https://api.spotify.com/v1/search?query=titanium&type=track&offset=0&limit=1",
        "items": [{
            "album": {
                "album_type": "album",
                "artists": [{
                    "external_urls": {
                        "spotify": "https://open.spotify.com/artist/1Cs0zKBU1kc0i8ypK3B9ai"
                    },
                    "href": "https://api.spotify.com/v1/artists/1Cs0zKBU1kc0i8ypK3B9ai",
                    "id": "1Cs0zKBU1kc0i8ypK3B9ai",
                    "name": "David Guetta",
                    "type": "artist",
                    "uri": "spotify:artist:1Cs0zKBU1kc0i8ypK3B9ai"
                }],
                "available_markets": ["CA", "US"],
                "external_urls": {
                    "spotify": "https://open.spotify.com/album/08DAekBeqPRCsn3XHDwj6b"
                },
                "href": "https://api.spotify.com/v1/albums/08DAekBeqPRCsn3XHDwj6b",
                "id": "08DAekBeqPRCsn3XHDwj6b",
                "images": [{
                    "height": 640,
                    "url": "https://i.scdn.co/image/720390efacb1312e67a0989a31539ff539aacd90",
                    "width": 640
                }, {
                    "height": 300,
                    "url": "https://i.scdn.co/image/77bb3849a2ffc3635d1f6ae0e1e501a7132c7942",
                    "width": 300
                }, {
                    "height": 64,
                    "url": "https://i.scdn.co/image/2c4eacb887094ac97b0635719721d4e1ab533218",
                    "width": 64
                }],
                "name": "Nothing But The Beat",
                "release_date": "2011-08-31",
                "release_date_precision": "day",
                "total_tracks": 13,
                "type": "album",
                "uri": "spotify:album:08DAekBeqPRCsn3XHDwj6b"
            },
            "artists": [{
                "external_urls": {
                    "spotify": "https://open.spotify.com/artist/1Cs0zKBU1kc0i8ypK3B9ai"
                },
                "href": "https://api.spotify.com/v1/artists/1Cs0zKBU1kc0i8ypK3B9ai",
                "id": "1Cs0zKBU1kc0i8ypK3B9ai",
                "name": "David Guetta",
                "type": "artist",
                "uri": "spotify:artist:1Cs0zKBU1kc0i8ypK3B9ai"
            }, {
                "external_urls": {
                    "spotify": "https://open.spotify.com/artist/5WUlDfRSoLAfcVSX1WnrxN"
                },
                "href": "https://api.spotify.com/v1/artists/5WUlDfRSoLAfcVSX1WnrxN",
                "id": "5WUlDfRSoLAfcVSX1WnrxN",
                "name": "Sia",
                "type": "artist",
                "uri": "spotify:artist:5WUlDfRSoLAfcVSX1WnrxN"
            }],
            "available_markets": ["CA", "US"],
            "disc_number": 1,
            "duration_ms": 245040,
            "explicit": false,
            "external_ids": {
                "isrc": "GB28K1100036"
            },
            "external_urls": {
                "spotify": "https://open.spotify.com/track/77TT8Xvx637TpzV8kKGkUw"
            },
            "href": "https://api.spotify.com/v1/tracks/77TT8Xvx637TpzV8kKGkUw",
            "id": "77TT8Xvx637TpzV8kKGkUw",
            "is_local": false,
            "name": "Titanium (feat. Sia)",
            "popularity": 66,
            "preview_url": "https://p.scdn.co/mp3-preview/06392eaab5975806f18d8411f5b58f50b1899198?cid=a96b6ad46e414d43af5b9625edeb4071",
            "track_number": 13,
            "type": "track",
            "uri": "spotify:track:77TT8Xvx637TpzV8kKGkUw"
        }],
        "limit": 1,
        "next": "https://api.spotify.com/v1/search?query=titanium&type=track&offset=1&limit=1",
        "offset": 0,
        "previous": null,
        "total": 3312
    }
}

-----------------------------------

{ status: 200,
    statusText: 'OK',
    headers:
     { date: 'Wed, 06 Feb 2019 23:10:47 GMT',
       'content-type': 'application/json; charset=utf-8',
       'content-length': '1288',
       connection: 'close',
       'set-cookie':
        [ '__cfduid=de9f3c04eaa04184be11911cad31f3ca01549494647; expires=Thu, 06-Feb-20 23:10:47 GMT; path=/; domain=.omdbapi.com; HttpOnly' ],
       'cache-control': 'public, max-age=86400',
       expires: 'Thu, 07 Feb 2019 23:10:47 GMT',
       'last-modified': 'Wed, 06 Feb 2019 23:00:56 GMT',
       vary: '*',
       'x-aspnet-version': '4.0.30319',
       'x-powered-by': 'ASP.NET',
       'access-control-allow-origin': '*',
       'cf-cache-status': 'HIT',
       'accept-ranges': 'bytes',
       server: 'cloudflare',
       'cf-ray': '4a514ac9ce9c500b-DEN' },
    config:
     { adapter: [Function: httpAdapter],
       transformRequest: { '0': [Function: transformRequest] },
       transformResponse: { '0': [Function: transformResponse] },
       timeout: 0,
       xsrfCookieName: 'XSRF-TOKEN',
       xsrfHeaderName: 'X-XSRF-TOKEN',
       maxContentLength: -1,
       validateStatus: [Function: validateStatus],
       headers:
        { Accept: 'application/json, text/plain, */*',
          'User-Agent': 'axios/0.18.0' },
       method: 'get',
       url:
        'http://www.omdbapi.com/?t=frozen&y=&plot=short&apikey=trilogy',
       data: undefined },
    request:
     ClientRequest {
       _events:
        { socket: [Function],
          abort: [Function],
          aborted: [Function],
          error: [Function],
          timeout: [Function],
          prefinish: [Function: requestOnPrefinish] },
       _eventsCount: 6,
       _maxListeners: undefined,
       output: [],
       outputEncodings: [],
       outputCallbacks: [],
       outputSize: 0,
       writable: true,
       _last: true,
       chunkedEncoding: false,
       shouldKeepAlive: false,
       useChunkedEncodingByDefault: false,
       sendDate: false,
       _removedConnection: false,
       _removedContLen: false,
       _removedTE: false,
       _contentLength: 0,
       _hasBody: true,
       _trailer: '',
       finished: true,
       _headerSent: true,
       socket:
        Socket {
          connecting: false,
          _hadError: false,
          _handle: [TCP],
          _parent: null,
          _host: 'www.omdbapi.com',
          _readableState: [ReadableState],
          readable: true,
          _events: [Object],
          _eventsCount: 7,
          _maxListeners: undefined,
          _writableState: [WritableState],
          writable: false,
          allowHalfOpen: false,
          _sockname: null,
          _pendingData: null,
          _pendingEncoding: '',
          server: null,
          _server: null,
          parser: null,
          _httpMessage: [Circular],
          [Symbol(asyncId)]: 88,
          [Symbol(lastWriteQueueSize)]: 0,
          [Symbol(timeout)]: null,
          [Symbol(kBytesRead)]: 0,
          [Symbol(kBytesWritten)]: 0 },
       connection:
        Socket {
          connecting: false,
          _hadError: false,
          _handle: [TCP],
          _parent: null,
          _host: 'www.omdbapi.com',
          _readableState: [ReadableState],
          readable: true,
          _events: [Object],
          _eventsCount: 7,
          _maxListeners: undefined,
          _writableState: [WritableState],
          writable: false,
          allowHalfOpen: false,
          _sockname: null,
          _pendingData: null,
          _pendingEncoding: '',
          server: null,
          _server: null,
          parser: null,
          _httpMessage: [Circular],
          [Symbol(asyncId)]: 88,
          [Symbol(lastWriteQueueSize)]: 0,
          [Symbol(timeout)]: null,
          [Symbol(kBytesRead)]: 0,
          [Symbol(kBytesWritten)]: 0 },
       _header:
        'GET /?t=frozen&y=&plot=short&apikey=trilogy HTTP/1.1\r\nAccept: application/json, text/plain, */*\r\nUser-Agent: axios/0.18.0\r\nHost: www.omdbapi.com\r\nConnection: close\r\n\r\n',
       _onPendingData: [Function: noopPendingOutput],
       agent:
        Agent {
          _events: [Object],
          _eventsCount: 1,
          _maxListeners: undefined,
          defaultPort: 80,
          protocol: 'http:',
          options: [Object],
          requests: {},
          sockets: [Object],
          freeSockets: {},
          keepAliveMsecs: 1000,
          keepAlive: false,
          maxSockets: Infinity,
          maxFreeSockets: 256 },
       socketPath: undefined,
       timeout: undefined,
       method: 'GET',
       path: '/?t=frozen&y=&plot=short&apikey=trilogy',
       _ended: true,
       res:
        IncomingMessage {
          _readableState: [ReadableState],
          readable: false,
          _events: [Object],
          _eventsCount: 3,
          _maxListeners: undefined,
          socket: [Socket],
          connection: [Socket],
          httpVersionMajor: 1,
          httpVersionMinor: 1,
          httpVersion: '1.1',
          complete: true,
          headers: [Object],
          rawHeaders: [Array],
          trailers: {},
          rawTrailers: [],
          aborted: false,
          upgrade: false,
          url: '',
          method: null,
          statusCode: 200,
          statusMessage: 'OK',
          client: [Socket],
          _consuming: false,
          _dumped: false,
          req: [Circular],
          responseUrl:
           'http://www.omdbapi.com/?t=frozen&y=&plot=short&apikey=trilogy',
          redirects: [] },
       aborted: undefined,
       timeoutCb: null,
       upgradeOrConnect: false,
       parser: null,
       maxHeadersCount: null,
       _redirectable:
        Writable {
          _writableState: [WritableState],
          writable: true,
          _events: [Object],
          _eventsCount: 2,
          _maxListeners: undefined,
          _options: [Object],
          _ended: true,
          _ending: true,
          _redirectCount: 0,
          _redirects: [],
          _requestBodyLength: 0,
          _requestBodyBuffers: [],
          _onNativeResponse: [Function],
          _currentRequest: [Circular],
          _currentUrl:
           'http://www.omdbapi.com/?t=frozen&y=&plot=short&apikey=trilogy' },
       [Symbol(isCorked)]: false,
       [Symbol(outHeadersKey)]: { accept: [Array], 'user-agent': [Array], host: [Array] } },
    data:
     { Title: 'Frozen',
       Year: '2013',
       Rated: 'PG',
       Released: '27 Nov 2013',
       Runtime: '102 min',
       Genre: 'Animation, Adventure, Comedy, Family, Fantasy, Musical',
       Director: 'Chris Buck, Jennifer Lee',
       Writer:
        'Jennifer Lee (screenplay by), Hans Christian Andersen (story inspired by "The Snow Queen" by), Chris Buck (story by), Jennifer Lee (story by), Shane Morris (story by)',
       Actors: 'Kristen Bell, Idina Menzel, Jonathan Groff, Josh Gad',
       Plot:
        'When the newly-crowned Queen Elsa accidentally uses her power to turn things into ice to curse her home in infinite winter, her sister Anna teams up with a mountain man, his playful reindeer, and a snowman to change the weather condition.',
       Language: 'English, Norwegian',
       Country: 'USA',
       Awards: 'Won 2 Oscars. Another 77 wins & 57 nominations.',
       Poster:
        'https://m.media-amazon.com/images/M/MV5BMTQ1MjQwMTE5OF5BMl5BanBnXkFtZTgwNjk3MTcyMDE@._V1_SX300.jpg',
       Ratings: [ [Object], [Object], [Object] ],
       Metascore: '74',
       imdbRating: '7.5',
       imdbVotes: '503,447',
       imdbID: 'tt2294629',
       Type: 'movie',
       DVD: '18 Mar 2014',
       BoxOffice: '$400,736,600',
       Production: 'Walt Disney Pictures',
       Website: 'http://www.disney.com/frozen',
       Response: 'True' } }
  